{"scopeValues":{"nqw9kt|ff.getFAQQuery.$status":"done","nqw9kt|ff.getFAQQuery.$error":null,"nqw9kt|ff.getFAQQuery.$data":{"total_count":22,"total_pages":3,"current_page":1,"has_next_page":true,"payload":[{"id":"adf05f5f-bc41-4f44-add2-70d832fdd523","title":"Кому писать, если возникнут технические проблемы или вопросы по оплате?","image":null,"thumbnail_image":null,"body":{"data":"При возникновении любых сложностей вы можете обратиться в нашу **службу поддержки**:\n- Отправить запрос через форму обратной связи на сайте.\n- Написать на электронную почту, указанную в разделе “Контакты”.\nНаша команда оперативно отвечает на все обращения и помогает решить любые технические или финансовые вопросы."},"pinned":false,"show_on_main":false,"additional_info":null,"created_at":"2025-03-02T21:02:37.863486+03:00","updated_at":"2025-03-02T21:02:37.863509+03:00"},{"id":"d7c66387-cba8-4832-96ac-09d75b2e16b7","title":"Как платформа помогает избежать стереотипов и неправильного использования ярлыков MBTI?","image":null,"thumbnail_image":null,"body":{"data":"Мы постоянно подчёркиваем, что **все типы личности равны** и не могут считаться “хорошими” или “плохими”. Рекомендации в отчётах направлены на конструктивное развитие сильных сторон и осознание личных особенностей, а не на навешивание ярлыков. Также мы добавляем пояснения, что MBTI — это инструмент, а не окончательный диагноз."},"pinned":false,"show_on_main":false,"additional_info":null,"created_at":"2025-03-02T21:02:37.860038+03:00","updated_at":"2025-03-02T21:02:37.860099+03:00"},{"id":"ac500012-2351-4bf0-870c-d47897704db6","title":"Как часто обновляются материалы и рекомендации в отчётах?","image":null,"thumbnail_image":null,"body":{"data":"Материалы и рекомендации регулярно **пересматриваются и дополняются** с учётом новой информации, исследований и обратной связи от пользователей. Мы стремимся поддерживать актуальность контента, чтобы он отражал современные тенденции в психологии и развитии личности."},"pinned":false,"show_on_main":false,"additional_info":null,"created_at":"2025-03-02T21:02:37.853002+03:00","updated_at":"2025-03-02T21:02:37.853030+03:00"},{"id":"923c448c-a713-4cf9-95f3-e471e63dd9bf","title":"Можно ли использовать результаты теста в HR-процессах (найм, оценка сотрудников)?","image":null,"thumbnail_image":null,"body":{"data":"Да, можно. При этом, стоит обратить внимание, что использование MBTI в HR-процессах не должно быть **единственным** критерием при найме и оценке персонала. Его можно применять, чтобы лучше понимать командную динамику, стили общения и формирования рабочих групп."},"pinned":false,"show_on_main":false,"additional_info":null,"created_at":"2025-03-02T21:02:37.847383+03:00","updated_at":"2025-03-02T21:02:37.847410+03:00"},{"id":"e0d16ec5-43fa-4e61-abb7-a18ca630b501","title":"Какие рекомендации я получу в разделе “Личный план развития”?","image":null,"thumbnail_image":null,"body":{"data":"В “Личном плане развития” вы найдёте:\n- Практические советы, как развивать сильные стороны вашего типа\n- Рекомендации по улучшению слабых сторон или “зон роста”\n- Идеи для обучения и повышения квалификации\n- Подсказки по управлению стрессом и эмоциональным состоянием\n- Рекомендации по улучшению коммуникации и отношений"},"pinned":false,"show_on_main":false,"additional_info":null,"created_at":"2025-03-02T21:02:37.843346+03:00","updated_at":"2025-03-02T21:02:37.843372+03:00"},{"id":"642a4673-bd9d-485b-83e6-d3964dab8c94","title":"Насколько сложно интерпретировать результаты без психолога?","image":null,"thumbnail_image":null,"body":{"data":"Мы стараемся предоставлять понятные и подробные пояснения для каждого типа личности и каждой дихотомии. Благодаря этому, даже без специального психологического образования, вы сможете разобраться в основных идеях MBTI и применить рекомендации на практике. Однако при наличии сложных личных ситуаций консультация специалиста может быть полезной."},"pinned":false,"show_on_main":false,"additional_info":null,"created_at":"2025-03-02T21:02:37.840052+03:00","updated_at":"2025-03-15T13:54:27.731481+03:00"},{"id":"20221072-fcf2-4c75-98c7-2e72ed74f263","title":"Можно ли использовать результаты теста для карьерного консультирования или профориентации?","image":null,"thumbnail_image":null,"body":{"data":"Да, многие специалисты по карьерному консультированию используют MBTI как часть методики профориентации. Результаты указывают на ваши склонности и сильные стороны, что помогает точнее подобрать профессию, сферу деятельности или рабочую среду."},"pinned":false,"show_on_main":false,"additional_info":null,"created_at":"2025-03-02T21:02:37.835704+03:00","updated_at":"2025-03-02T21:02:37.835743+03:00"},{"id":"e4a9a64d-91f9-4fae-83c6-080e1b953044","title":"Каковы основные преимущества MBTI по сравнению с другими типологиями личности?","image":null,"thumbnail_image":null,"body":{"data":"- **Простота и универсальность**: четыре дихотомии, легко запоминаемые обозначения типа (например, INFJ, ESTP).\n- **Практическая направленность**: результаты можно использовать в карьере, отношениях, саморазвитии.\n- **Фокус на восприятии и принятии решений**: MBTI подробно описывает, **как** человек мыслит и действует, а не только поведенческие паттерны.\n- **Широкое признание** в бизнес-среде, HR и коучинге."},"pinned":false,"show_on_main":false,"additional_info":null,"created_at":"2025-03-02T21:02:37.832166+03:00","updated_at":"2025-03-02T21:02:37.832202+03:00"},{"id":"c2082e68-4ced-45f2-bc79-c1bd44a64aa3","title":"Могу ли я получить доступ к своим предыдущим результатам после повторного тестирования?","image":null,"thumbnail_image":null,"body":{"data":"Да. После прохождения отчёта вам на почту будет **прислано письмо с постоянной ссылкой** на результаты прохождения теста. Вы можете использовать эту ссылку в любое время, чтобы просмотреть и сравнить результаты."},"pinned":false,"show_on_main":false,"additional_info":null,"created_at":"2025-03-02T21:02:37.828788+03:00","updated_at":"2025-03-02T21:02:37.828822+03:00"},{"id":"a1c9b848-776f-4632-993d-7f39f4a04963","title":"Могу ли я поделиться результатами теста с другими людьми?","image":null,"thumbnail_image":null,"body":{"data":"Да, вы можете свободно делиться результатами и ссылкой на свой отчёт с друзьями, коллегами и членами семьи, если считаете это полезным. Совместное обсуждение результатов может помочь лучше понять ваши способы взаимодействия и коммуникации."},"pinned":false,"show_on_main":false,"additional_info":null,"created_at":"2025-03-02T21:02:37.825628+03:00","updated_at":"2025-03-02T21:02:37.825662+03:00"}]},"nqw9kt|ff.getFAQQuery.$stale":false},"isMobile":"!undefined","_configFromHook":"!undefined","abortReason":"!undefined","_urlRewrite":null,"_urlRedirect":"!undefined","abortStatusCode":"!undefined","_abortCall":"!undefined","_pageContextInitIsPassedToClient":"!undefined","pageId":"/pages/faq","routeParams":{},"data":"!undefined"}